{
    "_id": "mlktvPVq3mb5DTpP",
    "data": {
        "attributes": {
            "ac": {
                "value": 39
            },
            "hardness": 0,
            "hasHealth": true,
            "hp": {
                "details": "per spirit",
                "max": 24,
                "temp": 0,
                "value": 24
            },
            "stealth": {
                "details": "<p>(expert) to hear the echoed shouts of panicked xulgaths</p>",
                "value": 26
            }
        },
        "creatureType": "",
        "details": {
            "description": "<p>The shadows of four xulgaths endlessly relive their deaths at the hands of the wendigos and their clutchmates.</p>",
            "disable": "<p><span data-pf2-check=\"religion\" data-pf2-dc=\"42\" data-pf2-traits=\"haunt\" data-pf2-label=\"Calm a Spirit DC\" data-pf2-show-dc=\"gm\">Religion</span> (master) or <span data-pf2-check=\"occultism\" data-pf2-dc=\"42\" data-pf2-traits=\"haunt\" data-pf2-label=\"Calm a Spirit DC\" data-pf2-show-dc=\"gm\">Occultism</span> (master) to calm each of the four spirits. On a character's first successful check, the character also learns that xulgath funerary rites typically involve cremation, which hints that fire is a viable way to put them to rest.</p>",
            "isComplex": true,
            "level": {
                "value": 16
            },
            "reset": "<p>The haunt is deactivated and resets 1 minute after all non-wendigo creatures leave the area.</p>",
            "routine": "<p>(4 actions) Each active spirit chooses a living non-wendigo creature within 120 feet and attempts to devour it, targeting different creatures if possible. Each calmed spirit reduces the hazard's actions by 1</p>"
        },
        "saves": {
            "fortitude": {
                "saveDetail": "",
                "value": 27
            },
            "reflex": {
                "saveDetail": "",
                "value": 31
            },
            "will": {
                "saveDetail": "",
                "value": 27
            }
        },
        "source": {
            "value": "Pathfinder #156: The Apocalypse Prophet"
        },
        "statusEffects": [],
        "traits": {
            "ci": [],
            "di": {
                "custom": "",
                "selected": {},
                "value": [
                    "death-effects",
                    "disease",
                    "paralyzed",
                    "poison",
                    "precision",
                    "unconscious"
                ]
            },
            "dr": [
                {
                    "exceptions": "except fire, force, ghost touch, or positive",
                    "label": "All",
                    "type": "all",
                    "value": "20"
                }
            ],
            "dv": [],
            "rarity": {
                "value": "unique"
            },
            "size": {
                "value": "med"
            },
            "traits": {
                "custom": "",
                "value": [
                    "haunt"
                ]
            }
        }
    },
    "effects": [],
    "flags": {},
    "img": "systems/pf2e/icons/default-icons/hazard.svg",
    "items": [
        {
            "_id": "Y4Ox9DseRSG2Epun",
            "data": {
                "actionCategory": {
                    "value": "offensive"
                },
                "actionType": {
                    "value": "reaction"
                },
                "actions": {
                    "value": null
                },
                "description": {
                    "value": "<p data-visibility=\"gm\"><strong>Trigger</strong> A living creature other than a wendigo gains the @Compendium[pf2e.conditionitems.Frightened]{Frightened} condition while within 100 feet of the way station;</p>\n<p><strong>Effect</strong> The haunt rolls for initiative.</p>"
                },
                "requirements": {
                    "value": ""
                },
                "rules": [],
                "slug": null,
                "source": {
                    "value": ""
                },
                "traits": {
                    "custom": "",
                    "rarity": {
                        "value": "common"
                    },
                    "value": []
                },
                "trigger": {
                    "value": ""
                }
            },
            "effects": [],
            "flags": {},
            "img": "systems/pf2e/icons/actions/Reaction.webp",
            "name": "Wendigo Remnants",
            "sort": 0,
            "type": "action"
        },
        {
            "_id": "7wtKLLAt30PdWUEX",
            "data": {
                "attack": {
                    "value": ""
                },
                "attackEffects": {
                    "value": []
                },
                "bonus": {
                    "value": 32
                },
                "damageRolls": {
                    "p9qpohxaaga0ym0mofgp": {
                        "damage": "3d6+5",
                        "damageType": "negative"
                    }
                },
                "description": {
                    "value": ""
                },
                "rules": [],
                "slug": null,
                "source": {
                    "value": ""
                },
                "traits": {
                    "custom": "",
                    "rarity": {
                        "value": "common"
                    },
                    "value": [
                        "magical"
                    ]
                },
                "weaponType": {
                    "value": "melee"
                }
            },
            "effects": [],
            "flags": {},
            "img": "systems/pf2e/icons/default-icons/melee.svg",
            "name": "Ghostly Bite",
            "sort": 0,
            "type": "melee"
        }
    ],
    "name": "Suffering Xulgaths",
    "token": {
        "disposition": 0,
        "height": 1,
        "img": "systems/pf2e/icons/default-icons/hazard.svg",
        "name": "Suffering Xulgaths",
        "width": 1
    },
    "type": "hazard"
}
