{
    "_id": "j91X7x0XSomq8d60",
    "data": {
        "active": true,
        "alsoApplies": {
            "linked": [
                {
                    "condition": "Flat-Footed"
                }
            ],
            "unlinked": []
        },
        "base": "Prone",
        "description": {
            "value": "<p>You're lying on the ground. You are @Compendium[pf2e.conditionitems.Flat-Footed]{Flat-Footed} and take a -2 circumstance penalty to attack rolls. The only move actions you can use while you're prone are @Compendium[pf2e.actionspf2e.Crawl]{Crawl} and @Compendium[pf2e.actionspf2e.Stand]{Stand}. Standing up ends the prone condition. You can @Compendium[pf2e.actionspf2e.Take Cover]{Take Cover} while prone to hunker down and gain cover against ranged attacks, even if you don't have an object to get behind, gaining a +4 circumstance bonus to AC against ranged attacks (but you remain flat-footed).</p>\n<p>If you would be knocked prone while you're @Compendium[pf2e.actionspf2e.Climb]{Climbing} or @Compendium[pf2e.actionspf2e.Fly]{Flying}, you fall. You can't be knocked prone when @Compendium[pf2e.actionspf2e.Swim]{Swimming}.</p>"
        },
        "duration": {
            "perpetual": true,
            "text": "",
            "value": 0
        },
        "group": "",
        "hud": {
            "img": {
                "useStatusName": true,
                "value": "systems/pf2e/icons/conditions-2/prone.webp"
            },
            "selectable": true,
            "statusName": "prone"
        },
        "modifiers": [
            {
                "group": "attack-roll",
                "type": "circumstance",
                "value": -2
            }
        ],
        "overrides": [],
        "references": {
            "children": [],
            "immunityFrom": [],
            "overriddenBy": [],
            "overrides": []
        },
        "removable": true,
        "rules": [],
        "source": {
            "value": ""
        },
        "sources": {
            "hud": true
        },
        "traits": {
            "custom": "",
            "rarity": {
                "value": "common"
            },
            "value": []
        },
        "value": {
            "immutable": false,
            "isValued": false,
            "modifiers": [],
            "value": null
        }
    },
    "effects": [],
    "flags": {
        "pf2e": {
            "condition": true
        }
    },
    "img": "systems/pf2e/icons/conditions/prone.webp",
    "name": "Prone",
    "type": "condition"
}
