{
    "_id": "hPx0xiv00GQqPWUH",
    "data": {
        "boosts": {
            "0": {
                "value": [
                    "con",
                    "int"
                ]
            },
            "1": {
                "value": [
                    "cha",
                    "con",
                    "dex",
                    "int",
                    "str",
                    "wis"
                ]
            }
        },
        "description": {
            "value": "<p><strong>Prerequisite</strong>: Region - Shining Kingdoms</p>\n<hr />\n<p>You follow the philosophy of the Prophecies of Kalistrade, seeking to build up your wealth in this life so that you might meet the next world on your own terms.</p>\n<p>Choose two ability boosts. One must be to <strong>Constitution</strong> or <strong>Intelligence</strong>, and one is a free ability boost.</p>\n<p>You're trained in the Diplomacy skill and the Kalistrade Lore skill. You gain the @Compendium[pf2e.feats-srd.Bargain Hunter]{Bargain Hunter} skill feat.</p>"
        },
        "items": {
            "q5wjd": {
                "id": "5nc5ridFBfYpn2Om",
                "img": "systems/pf2e/icons/features/feats/feats.webp",
                "level": "1",
                "name": "Bargain Hunter",
                "pack": "pf2e.feats-srd"
            }
        },
        "rules": [],
        "source": {
            "value": "Pathfinder Lost Omens: World Guide"
        },
        "trainedLore": "Kalistrade Lore",
        "trainedSkills": {
            "value": [
                "dip"
            ]
        },
        "traits": {
            "custom": "",
            "rarity": {
                "value": "common"
            },
            "value": []
        }
    },
    "effects": [],
    "flags": {},
    "img": "systems/pf2e/icons/default-icons/background.svg",
    "name": "Kalistrade Follower",
    "type": "background"
}
