{
    "_id": "XcacLiaGDgjzHS3T",
    "data": {
        "boosts": {
            "0": {
                "value": [
                    "dex",
                    "wis"
                ]
            },
            "1": {
                "value": [
                    "cha",
                    "con",
                    "dex",
                    "int",
                    "str",
                    "wis"
                ]
            }
        },
        "description": {
            "value": "<p>An eye for detail, a sense for the wind, and a strong trust in your gut feelings. These qualities have set you apart from others when it comes to assisting a sharpshooter with setting up the perfect shot against their target. Elevation, velocity, and concealment-these are all vital factors that need to be considered to pull off a feat of true marksmanship, and no sniper would be able to function without an experienced spotter. Since your younger days, you've put your skills as a spotter to work as an adventurer. Whether you're taking your own shots now or spotting for others, your talents grant you an edge in an adventuring career.</p>\n<p>Choose two ability boosts. One must be to <strong>Dexterity</strong> or <strong>Wisdom</strong>, and one is a free ability boost.</p>\n<p>You're trained in the Stealth skill and the Scouting Lore skill. You gain the @Compendium[pf2e.feats-srd.Terrain Stalker]{Terrain Stalker} skill feat.</p>"
        },
        "items": {
            "ku7lr": {
                "id": "beyw5bdA5hkQbmaG",
                "img": "systems/pf2e/icons/features/feats/feats.webp",
                "level": 1,
                "name": "Terrain Stalker",
                "pack": "pf2e.feats-srd"
            }
        },
        "rules": [],
        "source": {
            "value": ""
        },
        "trainedLore": "Scouting",
        "trainedSkills": {
            "custom": "",
            "value": [
                "ste"
            ]
        },
        "traits": {
            "custom": "",
            "rarity": {
                "value": "common"
            },
            "value": []
        }
    },
    "effects": [],
    "flags": {},
    "img": "systems/pf2e/icons/default-icons/background.svg",
    "name": "Spotter",
    "type": "background"
}
