{
    "_id": "qB7g1OiZ8v8zgvkL",
    "data": {
        "boosts": {
            "0": {
                "value": [
                    "con",
                    "int"
                ]
            },
            "1": {
                "value": [
                    "cha",
                    "con",
                    "dex",
                    "int",
                    "str",
                    "wis"
                ]
            }
        },
        "description": {
            "value": "<p><strong>Prerequisite</strong>: Region - Broken Lands</p>\n<hr />\n<p>Having once sampled Numerian fluids, you've tasted knowledge beyond comprehension. You are driven to recapture that astounding experience.</p>\n<p>Choose two ability boosts. One must be to <strong>Intelligence</strong> or <strong>Constitution</strong>, and one is a free ability boost.</p>\n<p>You're trained in the Crafting skill and the Alchemical Lore skill. You gain the @Compendium[pf2e.feats-srd.Alchemical Crafting]{Alchemical Crafting} skill feat.</p>"
        },
        "items": {
            "eclly": {
                "id": "is3Oz9wt11lNq62K",
                "img": "systems/pf2e/icons/features/feats/feats.webp",
                "level": "1",
                "name": "Alchemical Crafting",
                "pack": "pf2e.feats-srd"
            }
        },
        "rules": [],
        "source": {
            "value": "Pathfinder Lost Omens: World Guide"
        },
        "trainedLore": "Alchemical Lore",
        "trainedSkills": {
            "value": [
                "cra"
            ]
        },
        "traits": {
            "custom": "",
            "rarity": {
                "value": "common"
            },
            "value": []
        }
    },
    "effects": [],
    "flags": {},
    "img": "systems/pf2e/icons/default-icons/background.svg",
    "name": "Wonder Taster",
    "type": "background"
}
