{
    "_id": "kY41VIXUSEJYEznp",
    "data": {
        "baseItem": null,
        "brokenThreshold": {
            "value": 0
        },
        "bulkCapacity": {
            "value": ""
        },
        "collapsed": {
            "value": false
        },
        "containerId": {
            "value": null
        },
        "description": {
            "value": "<p>This rune prevents enemies from escaping your grasp by @Compendium[pf2e.conditionitems.Fleeing]{Fleeing} to other planes.</p>\n<p>When you critically hit a target with a weapon with the anchoring rune, the weapon casts 8th-level <em>@Compendium[pf2e.spells-srd.Dimensional Anchor]{Dimensional Anchor}</em> on the target (<span data-pf2-check=\"will\" data-pf2-traits=\"abjuration,magical\" data-pf2-label=\"Dimensional Anchor DC\" data-pf2-dc=\"38\">DC 38 Will</span>, counteract modifier [[/r 1d20+28 #counteract]]{+28}), except that if the target critically succeeds at its Will save, instead of having no effect, the <em>dimensional anchor</em> lasts for 1 round. When you hit a target with the weapon but don't critically hit, the target is affected by 4th-level <em>dimensional anchor</em> for 1 round without a save (this still uses a counteract modifier of +28).</p>"
        },
        "equipped": {
            "value": false
        },
        "equippedBulk": {
            "value": ""
        },
        "hardness": {
            "value": 0
        },
        "hp": {
            "value": 0
        },
        "identification": {
            "misidentified": {},
            "status": "identified",
            "unidentified": {
                "data": {
                    "description": {
                        "value": ""
                    }
                },
                "img": "",
                "name": ""
            }
        },
        "invested": {
            "value": null
        },
        "level": {
            "value": 18
        },
        "maxHp": {
            "value": 0
        },
        "negateBulk": {
            "value": "0"
        },
        "preciousMaterial": {
            "value": null
        },
        "preciousMaterialGrade": {
            "value": null
        },
        "price": {
            "value": "22000 gp"
        },
        "quantity": {
            "value": 1
        },
        "rules": [],
        "size": {
            "value": "med"
        },
        "source": {
            "value": "Pathfinder Lost Omens: The Grand Bazaar"
        },
        "stackGroup": {
            "value": ""
        },
        "traits": {
            "custom": "",
            "rarity": {
                "value": "uncommon"
            },
            "value": [
                "abjuration",
                "magical"
            ]
        },
        "usage": {
            "value": "etched-onto-a-weapon"
        },
        "weight": {
            "value": "-"
        }
    },
    "effects": [],
    "flags": {},
    "img": "systems/pf2e/icons/equipment/runes/weapon-property-runes/weapon-property-runes.webp",
    "name": "Anchoring (Greater)",
    "type": "equipment"
}
