{
    "_id": "WvDbdESFJY6Be2u1",
    "data": {
        "activation": {
            "condition": "",
            "cost": 0,
            "type": ""
        },
        "autoDestroy": {
            "_deprecated": true,
            "value": true
        },
        "autoUse": {
            "_deprecated": true,
            "value": true
        },
        "baseItem": null,
        "brokenThreshold": {
            "value": 0
        },
        "bulkCapacity": {
            "value": ""
        },
        "charges": {
            "_deprecated": true,
            "max": "1",
            "value": "1"
        },
        "collapsed": {
            "value": false
        },
        "consumableType": {
            "value": "poison"
        },
        "consume": {
            "_deprecated": true,
            "value": null
        },
        "containerId": {
            "value": ""
        },
        "description": {
            "value": "<p><strong>Activate</strong><span class=\"pf2-icon\">2</span>Interact</p>\n<hr />\n<p>This oily, dark purple powder gives off the distinct odor of boiled leather. When delivered, the poison acts quickly to constrict the victim's blood flow to their extremities and turn their lungs into a soft jelly. A victim of blackfinger blight is recognizable by the pores of their fingertips weeping an inky oil that coats their hands and makes it difficult to hold things. Each round, at the beginning of their turn, a creature affected by blackfinger blight must succeed at a flat DC 5 check or drop one random item they're holding.</p>\n<p><strong>Saving Throw</strong> <span data-pf2-check=\"fortitude\" data-pf2-dc=\"32\" data-pf2-traits=\"alchemical,consumable,contact,poison,virulent\" data-pf2-label=\"Blackfinger Blight DC\" data-pf2-show-dc=\"gm\">Fortitude</span>;</p>\n<p><strong>Onset</strong> 1 round;</p>\n<p><strong>Maximum Duration</strong> 6 rounds;</p>\n<p><strong>Stage 1</strong> [[/r {6d6}[poison]]]{6d6 poison damage} (1 round);</p>\n<p><strong>Stage 2</strong> [[/r {8d6}[poison]]]{8d6 poison damage} (1 round);</p>\n<p><strong>Stage 3</strong> [[/r {10d6}[poison]]]{10d6 poison damage} and @Compendium[pf2e.conditionitems.Confused]{Confused}(1 round)</p>"
        },
        "duration": {
            "units": "",
            "value": null
        },
        "equipped": {
            "value": false
        },
        "equippedBulk": {
            "value": ""
        },
        "hardness": {
            "value": 0
        },
        "hp": {
            "value": 0
        },
        "identification": {
            "misidentified": {},
            "status": "identified",
            "unidentified": {
                "data": {
                    "description": {
                        "value": ""
                    }
                },
                "img": "",
                "name": ""
            }
        },
        "level": {
            "value": 12
        },
        "maxHp": {
            "value": 0
        },
        "negateBulk": {
            "value": "0"
        },
        "preciousMaterial": {
            "value": ""
        },
        "preciousMaterialGrade": {
            "value": ""
        },
        "price": {
            "value": "350 gp"
        },
        "quantity": {
            "value": 1
        },
        "range": {
            "long": null,
            "units": "",
            "value": null
        },
        "rules": [],
        "size": {
            "value": "med"
        },
        "source": {
            "value": "Pathfinder #159: All or Nothing"
        },
        "spell": {
            "data": null,
            "heightenedLevel": null
        },
        "stackGroup": {
            "value": ""
        },
        "target": {
            "type": "",
            "units": "",
            "value": null
        },
        "traits": {
            "custom": "",
            "rarity": {
                "value": "rare"
            },
            "value": [
                "alchemical",
                "consumable",
                "contact",
                "poison",
                "virulent"
            ]
        },
        "usage": {
            "value": "held-in-one-hand"
        },
        "uses": {
            "autoDestroy": true,
            "autoUse": true,
            "max": 0,
            "per": null,
            "value": 0
        },
        "weight": {
            "value": "L"
        }
    },
    "effects": [],
    "flags": {},
    "img": "systems/pf2e/icons/equipment/alchemical-items/alchemical-poisons/blackfinger-blight.webp",
    "name": "Blackfinger Blight",
    "type": "consumable"
}
