{
    "_id": "JhDhFq2JGBGR2lwb",
    "data": {
        "baseItem": null,
        "brokenThreshold": {
            "value": 0
        },
        "bulkCapacity": {
            "value": ""
        },
        "collapsed": {
            "value": false
        },
        "containerId": {
            "value": ""
        },
        "description": {
            "value": "<p>Pathfinder Society researchers recently created elemental wayfinders with the assistance of the Society's elemental allies. In addition to the effects of a @Compendium[pf2e.equipment-srd.Wayfinder]{Wayfinder}, these wayfinders each grant the ability to cast a particular elemental spell once per day, and can assist Pathfinders in exploring areas associated with their element. Each has the trait associated with its element.</p>\n<hr />\n<p><strong>Activate</strong> <strong></strong> <span class=\"pf2-icon\">2</span> command;</p>\n<p><strong>Frequency</strong> once per day;</p>\n<p><strong>Effect</strong> The wayfinder can cast 4th-level <em>@Compendium[pf2e.spells-srd.Fireball]{Fireball}</em>.</p>\n<hr />\n<p>Additionally, you gain resistance 5 to fire.</p>"
        },
        "equipped": {
            "value": false
        },
        "equippedBulk": {
            "value": ""
        },
        "hardness": {
            "value": 0
        },
        "hp": {
            "value": 0
        },
        "identification": {
            "misidentified": {},
            "status": "identified",
            "unidentified": {
                "data": {
                    "description": {
                        "value": ""
                    }
                },
                "img": "",
                "name": ""
            }
        },
        "invested": {
            "value": false
        },
        "level": {
            "value": 9
        },
        "maxHp": {
            "value": 0
        },
        "negateBulk": {
            "value": "0"
        },
        "preciousMaterial": {
            "value": ""
        },
        "preciousMaterialGrade": {
            "value": ""
        },
        "price": {
            "value": "700 gp"
        },
        "quantity": {
            "value": 1
        },
        "rules": [],
        "size": {
            "value": "med"
        },
        "source": {
            "value": "Pathfinder Lost Omens: Pathfinder Society Guide"
        },
        "stackGroup": {
            "value": ""
        },
        "traits": {
            "custom": "",
            "rarity": {
                "value": "uncommon"
            },
            "value": [
                "evocation",
                "invested",
                "magical"
            ]
        },
        "usage": {
            "value": "worn"
        },
        "weight": {
            "value": "-"
        }
    },
    "effects": [],
    "flags": {},
    "img": "systems/pf2e/icons/equipment/worn-items/other-worn-items/elemental-wayfinder-fire.webp",
    "name": "Elemental Wayfinder (Fire)",
    "type": "equipment"
}
