{
    "_id": "v6he7HLxYGzaMnvL",
    "data": {
        "actionCategory": {
            "value": "defensive"
        },
        "actionType": {
            "value": "passive"
        },
        "actions": {
            "value": null
        },
        "description": {
            "value": "<p>The zombie is covered in pustules that rupture when it takes any piercing damage or any critical hit.</p>\n<p>In either case, adjacent creatures are hit with vile fluid, causing them to become @Compendium[pf2e.conditionitems.Sickened]{Sickened 1} unless they succeed at a <span data-pf2-check=\"fortitude\" data-pf2-dc=\"\" data-pf2-traits=\"disease,necromancy\" data-pf2-label=\"Disgusting Pustules DC\" data-pf2-show-dc=\"gm\">Fortitude</span> save.</p>"
        },
        "requirements": {
            "value": ""
        },
        "rules": [],
        "source": {
            "value": "Pathfinder Bestiary"
        },
        "traits": {
            "custom": "",
            "rarity": {
                "value": "common"
            },
            "value": [
                "disease",
                "necromancy"
            ]
        },
        "trigger": {
            "value": ""
        },
        "weapon": {
            "value": ""
        }
    },
    "effects": [],
    "flags": {},
    "img": "systems/pf2e/icons/actions/Passive.webp",
    "name": "(Zombie) Disgusting Pustules",
    "type": "action"
}
