{
    "_id": "klZe3T5N3T79oQvN",
    "content": "<table class=\"pf2-table\">\n<thead>\n<tr>\n<th>\n<h3><strong>Name</strong></h3>\n</th>\n<th>\n<h3><strong>Crit Effect</strong></h3>\n</th>\n<th>\n<h3><strong>Type</strong></h3>\n</th>\n</tr>\n</thead>\n<tbody>\n<tr>\n<td>\n<h3>Nighty Night</h3>\n</td>\n<td>\n<h3>Normal damage. The target falls unconscious and can't wake up until the of its next turn.</h3>\n</td>\n<td>\n<h3>Bludgeoning</h3>\n</td>\n</tr>\n<tr>\n<td>\n<h3>Painful Poke</h3>\n</td>\n<td>\n<h3>The target is stunned 1.</h3>\n</td>\n<td>\n<h3>Piercing</h3>\n</td>\n</tr>\n<tr>\n<td>\n<h3>That'll Leave a Mark!</h3>\n</td>\n<td>\n<h3>Normal damage. The target takes 2d6 persistent bleed damage.</h3>\n</td>\n<td>\n<h3>Slashing</h3>\n</td>\n</tr>\n<tr>\n<td>\n<h3>Devastating Strike</h3>\n</td>\n<td>\n<h3>Triple damage. The target is stunned 1.</h3>\n</td>\n<td>\n<h3>Bomb or Spell</h3>\n</td>\n</tr>\n</tbody>\n</table>\n<h3 style=\"text-align: left;\"> </h3>",
    "flags": {},
    "name": "Critical Hit Deck #19",
    "permission": {
        "default": 0
    }
}
