{
    "_id": "ZhKXvnw7ND2hQ2pp",
    "data": {
        "actionCategory": {
            "value": "interaction"
        },
        "actionType": {
            "value": "passive"
        },
        "actions": {
            "value": null
        },
        "description": {
            "value": "<p>You meditate, pray, or otherwise try to reinforce your soul's connection to your soulforged armament. This takes 10 minutes. Attempt a counteract check against your <em>soulforged corruption</em>. The counteract level is half your level rounded up, and the counteract check modifier is your Religion modifier. If successful, reduce the stage of your <em>soulforged corruption</em> by 1 (to a minimum of Stage 1).</p>"
        },
        "requirements": {
            "value": ""
        },
        "rules": [],
        "source": {
            "value": ""
        },
        "traits": {
            "custom": "",
            "rarity": {
                "value": "common"
            },
            "value": [
                "exploration"
            ]
        },
        "trigger": {
            "value": ""
        }
    },
    "effects": [],
    "flags": {},
    "img": "systems/pf2e/icons/actions/Passive.webp",
    "name": "Cleanse Soul Path",
    "type": "action"
}
