{
    "_id": "5dhm66yN0LQTOePw",
    "data": {
        "description": {
            "value": "<p>Each use of the <em>holy steam ball</em> lasts for 1 hour and gives you a +2 item bonus to Will saving throws against possession effects from fiends and undead and effects from fiends and undead that cause the controlled condition.</p>"
        },
        "duration": {
            "expiry": "turn-start",
            "sustained": false,
            "unit": "hours",
            "value": 1
        },
        "level": {
            "value": 2
        },
        "rules": [
            {
                "key": "ToggleProperty",
                "label": "Saving vs. Possession or Control Effect from Undead or Fiend",
                "property": "flags.pf2e.rollOptions.all.holySteamBall"
            },
            {
                "key": "FlatModifier",
                "predicate": {
                    "all": [
                        "holySteamBall"
                    ]
                },
                "selector": "will",
                "type": "item",
                "value": 2
            }
        ],
        "source": {
            "value": "Pathfinder Guns & Gears"
        },
        "start": {
            "initiative": null,
            "value": 0
        },
        "target": null,
        "tokenIcon": {
            "show": true
        },
        "traits": {
            "custom": "",
            "rarity": {
                "value": "common"
            },
            "value": []
        }
    },
    "effects": [],
    "flags": {},
    "img": "systems/pf2e/icons/default-icons/effect.svg",
    "name": "Effect: Holy Steam Ball",
    "type": "effect"
}
