{
    "_id": "wFP3SqPoO0bCPmyK",
    "data": {
        "description": {
            "value": "<p>When you use the shield to Grapple, you gain a +3 item bonus to your Athletics check.</p>"
        },
        "duration": {
            "expiry": "turn-end",
            "sustained": false,
            "unit": "minutes",
            "value": 1
        },
        "level": {
            "value": 1
        },
        "rules": [
            {
                "key": "FlatModifier",
                "label": "Kraken's Guard (Grapple)",
                "predicate": {
                    "all": [
                        "action:grapple"
                    ]
                },
                "selector": "athletics",
                "type": "item",
                "value": 3
            }
        ],
        "source": {
            "value": ""
        },
        "start": {
            "initiative": null,
            "value": 0
        },
        "target": null,
        "tokenIcon": {
            "show": false
        },
        "traits": {
            "custom": "",
            "rarity": {
                "value": "common"
            },
            "value": []
        }
    },
    "effects": [],
    "flags": {},
    "img": "systems/pf2e/icons/default-icons/effect.svg",
    "name": "Effect: Kraken's Guard",
    "type": "effect"
}
