{
    "_id": "WqkV7xd2KOmNQd67",
    "data": {
        "attributes": {
            "ac": {
                "value": 10
            },
            "hardness": 0,
            "hasHealth": true,
            "hp": {
                "details": "",
                "max": 0,
                "temp": 0,
                "value": 0
            },
            "stealth": {
                "details": "<p>(trained)</p>",
                "value": 20
            }
        },
        "creatureType": "",
        "details": {
            "description": "<p>Ghostly attackers knock the tables about, send dishes flying, and pull fleeing creatures into the room.</p>",
            "disable": "<p><span data-pf2-check=\"religion\" data-pf2-traits=\"haunt\" data-pf2-label=\"Say an Iroran prayer DC\" data-pf2-dc=\"34\" data-pf2-show-dc=\"gm\">Religion</span> (expert) to say an Iroran prayer and put the haunt temporarily to rest, <span data-pf2-check=\"occultism\" data-pf2-traits=\"haunt\" data-pf2-label=\"Ward Against Future Hauntings DC\" data-pf2-dc=\"38\" data-pf2-show-dc=\"gm\">Occultism</span> (master) to create a ward against future hauntings.</p>",
            "isComplex": true,
            "level": {
                "value": 12
            },
            "reset": "<p>The haunt deactivates after 1 minute. It re-forms at the same times every day, 7 a.m. and 7 p.m., which is when the monks had their morning and evening meals. If at least two people cook a meal in the kitchen, share a meal in the refectory, and utter a prayer to Irori before the meal, the haunt becomes permanently disabled and doesn't re-form.</p>",
            "routine": "<p>(1 action) The haunt sends a flurry of objects hurtling across the room. All creatures in the room are battered by the ghostly objects, taking [[/r {3d10+14}[force]]]{3d10+14 Force damage} (<span data-pf2-saving-throw=\"reflex\" data-pf2-traits=\"damaging-effect\" data-pf2-label=\"Broken Rebus Attack DC\" data-pf2-dc=\"36\" data-pf2-show-dc=\"gm\">basic Reflex</span> save).</p>"
        },
        "saves": {
            "fortitude": {
                "saveDetail": "",
                "value": 0
            },
            "reflex": {
                "saveDetail": "",
                "value": 0
            },
            "will": {
                "saveDetail": "",
                "value": 0
            }
        },
        "source": {
            "value": "Pathfinder #166: Despair on Danger Island"
        },
        "statusEffects": [],
        "traits": {
            "ci": [],
            "di": {
                "custom": "",
                "selected": {},
                "value": []
            },
            "dr": [],
            "dv": [],
            "rarity": {
                "value": "common"
            },
            "size": {
                "value": "med"
            },
            "traits": {
                "custom": "",
                "value": [
                    "haunt",
                    "magical"
                ]
            }
        }
    },
    "effects": [],
    "flags": {},
    "img": "systems/pf2e/icons/default-icons/hazard.svg",
    "items": [
        {
            "_id": "unRMsmyHgUc7VDnx",
            "data": {
                "actionCategory": {
                    "value": "offensive"
                },
                "actionType": {
                    "value": "reaction"
                },
                "actions": {
                    "value": null
                },
                "description": {
                    "value": "<p data-visibility=\"gm\"><strong>Trigger</strong> One round passes since a creature entered the refectory.</p>\n<p><strong>Effect</strong> A Broken Rebus monk grabs the creature and yanks them toward the room's center. The triggering creature must attempt a <span data-pf2-check=\"fortitude\" data-pf2-traits=\"haunt\" data-pf2-label=\"Ghostly Pull DC\" data-pf2-dc=\"36\" data-pf2-show-dc=\"gm\">Fortitude</span> save. The haunt can use this reaction any number of times per round, but only once per creature that tries to leave the room. The haunt then rolls initiative, if it hasn't already.</p>\n<hr />\n<p><strong>Critical Success</strong> The creature is unaffected.</p>\n<p><strong>Success</strong> The creature is pulled 10 feet into the room.</p>\n<p><strong>Failure</strong> The creature is pulled 15 feet into the room.</p>\n<p><strong>Critical Failure</strong> The creature is pulled 15 feet into the room, knocked prone, and takes [[/r {2d6}[bludgeoning]]]{2d6 bludgeoning damage}.</p>"
                },
                "requirements": {
                    "value": ""
                },
                "rules": [],
                "slug": null,
                "source": {
                    "value": ""
                },
                "traits": {
                    "custom": "",
                    "rarity": {
                        "value": "common"
                    },
                    "value": []
                },
                "trigger": {
                    "value": ""
                },
                "weapon": {
                    "value": ""
                }
            },
            "effects": [],
            "flags": {},
            "img": "systems/pf2e/icons/actions/Reaction.webp",
            "name": "Ghostly Pull",
            "sort": 0,
            "type": "action"
        }
    ],
    "name": "Broken Rebus Attack",
    "token": {
        "disposition": 0,
        "height": 1,
        "img": "systems/pf2e/icons/default-icons/hazard.svg",
        "name": "Broken Rebus Attack",
        "width": 1
    },
    "type": "hazard"
}
