{
    "_id": "iXvyp9rGnqvFfy4q",
    "content": "<h1>Kazutal (Mother Jaguar) [NG]</h1><p></span>Kazutal, also known as Mother Jaguar or Lady Jaguar, is an old deity, revered for thousands of years on the continent of Arcadia. Ages ago, she was worshipped in the Razatlani Empire as a goddess of might and protection in war. After the catastrophe of Earthfall, however, her edge softened; those who struggled to put the world back together called upon her to protect their neighbors and came together under her guidance to build strong bonds of community and support.</p><p><strong>Edicts</strong> defend your people, provide for those who need you, oppose those who unjustly lord power over others, demonstrate devotion to things you love</p><p><strong>Anathema</strong> own a slave, force a creature to act against its will, refuse to give aid to an ally, enforce an unjust law</p><p><strong>Areas of Concern</strong> safety, liberty, and community</p><p><strong>Follower Alignments</strong> LG, NG, CG</span></p><p></span></p><h2>Devotee Benefits</h2><div><div><strong>Divine Ability</strong> Strength or Wisdom</div><div><strong>Divine Font</strong> heal</div><div><strong>Divine Skill</strong> Society</div><div><strong>Favored Weapon</strong> machete</div><div><strong>Domains</strong> family, freedom, might, protection</div><div><strong>Alternate Domains</strong> cities</div><div><strong>Cleric Spells</strong> 1st: mage armor, 3rd: animal form, 4th: stoneskin</div></div><h2>Divine Intercession</h2><p>Mother Jaguar rewards those who uphold a sense of community and bestows punishments upon those who use her name and convictions to admonish or exclude perceived outsiders.</p><p><strong>Minor Boon</strong>: With Kazutal's blessing, food tastes richer. Any meal that you eat tastes delicious and has improved nutritional value. This doesn't protect you from anything dangerous in your food, but it also doesn't prevent you from tasting those dangerous elements of the food.</p><p><strong>Moderate Boon</strong>: You always seem to find safe shelter when you most need it. Once per day, you can cast rope trick as a divine innate spell.</p><p><strong>Major Boon</strong>: Kazutal smiles upon those who seek to offer aid, no matter how meek or helpless they may be. Any time creatures attempt a check to Aid you, they can choose to automatically succeed. If a creature chooses to roll for the attempt and rolls a success, it gets a critical success instead, granting a +4 circumstance bonus even if it doesn't have legendary proficiency in that skill. You gain the same benefits when you attempt to Aid others.</p><p><strong>Minor Curse</strong>: Community opinion turns against you. Humanoids in your community who would normally start as indifferent toward you start as unfriendly instead.</p><p><strong>Moderate Curse</strong>: Your strength betrays you, preventing you from taking more than your fair share. You are enfeebled 2 and can't carry anything beyond the gear you are actively wearing or using.</p><p><strong>Major Curse</strong>: You are cursed to depend upon others for your survival. You can't eat anything, drink anything, or use any gear or magic items unless they were willingly given to you by someone who rightfully owns them. Work-arounds like having an ally strip the gear from someone's corpse and then give it to you willingly automatically fail.</span></p>",
    "flags": {},
    "name": "Kazutal",
    "permission": {
        "default": 0
    }
}
