{
    "_id": "xu05XGotyT5st56H",
    "content": "<h1>Lady Jingxi (The Poet of Dawn and Dusk) [NG]</h1><p><strong>Edicts</strong> Create art with words, master the written language, display the soft beauty of natural colors</p><p><strong>Anathema</strong> Destroy a natural plum tree, drink excessive amounts of alcohol, act rude or boorish</p><p><strong>Follower Alignments</strong> NG, N</span></p><p></span></p><h2>Devotee Benefits</h2><div><div><strong>Divine Ability</strong> Intelligence or Wisdom</div><div><strong>Divine Font</strong> heal</div><div><strong>Divine Skill</strong> Performance</div><div><strong>Favored Weapon</strong> fighting fan</div><div><strong>Domains</strong> creation, glyph, knowledge, repose</div><div><strong>Cleric Spells</strong> 1st: sleep, 2nd: mirror image, 5th: chromatic wall</div></div>",
    "flags": {},
    "name": "Lady Jingxi",
    "permission": {
        "default": 0
    }
}
