{
    "_id": "giAsBYiL2omr0x2L",
    "content": "<h1>Qi Zhong (Master of Medicine) [NG]</h1><p><strong>Edicts</strong> Teach knowledge to others, relieve suffering despite personal difficulty, heal sickness and injuries</p><p><strong>Anathema</strong> Deal lethal damage to another living creature (unless as part of a necessary medical treatment)</p><p><strong>Follower Alignments</strong> LG, NG, CG, N</span></p><p></span></p><h2>Devotee Benefits</h2><div><div><strong>Divine Ability</strong> Intelligence or Wisdom</div><div><strong>Divine Font</strong> heal</div><div><strong>Divine Skill</strong> Medicine</div><div><strong>Favored Weapon</strong> heavy mace</div><div><strong>Domains</strong> healing, knowledge, magic, protection</div><div><strong>Cleric Spells</strong> 1st: soothe, 2nd: false life, 4th: resilient sphere</div></div>",
    "flags": {},
    "name": "Qi Zhong",
    "permission": {
        "default": 0
    }
}
