{
    "_id": "9tsJg13xeJLGzzGV",
    "content": "<p><strong>Deities</strong> @Compendium[pf2e.deities.Fumeiyoshi]{Fumeiyoshi}, @Compendium[pf2e.deities.Kabriri]{Kabriri}, @Compendium[pf2e.deities.Mahathallah]{Mahathallah}, @Compendium[pf2e.deities.Nhimbaloth]{Nhimbaloth}, @Compendium[pf2e.deities.Urgathoa]{Urgathoa}, @Compendium[pf2e.deities.Zura]{Zura}, @Compendium[pf2e.deities.Zyphus]{Zyphus}</p><p><strong>Domain Spell</strong> @Compendium[pf2e.spells-srd.Touch of Undeath]{Touch of Undeath}; <strong>Advanced Domain Spell</strong> @Compendium[pf2e.spells-srd.Malignant Sustenance]{Malignant Sustenance}</p><p><span id=\"ctl00_MainContent_DetailedOutput\">Your magic carries close ties to the undead.</span></p><p></p>",
    "flags": {},
    "name": "Undeath Domain",
    "permission": {
        "default": 0
    }
}
