{
    "_id": "SfBXPmADMFiZIBQt",
    "data": {
        "actionCategory": {
            "value": ""
        },
        "actionType": {
            "value": "passive"
        },
        "actions": {
            "value": null
        },
        "description": {
            "value": "<p>When you successfully Play to the Crowd, add the following to the list of benefits you can choose from:</p>\n<ul>\n<li>Choose a creature within 30 feet that can see you to become @Compendium[pf2e.conditionitems.Frightened]{Frightened 1}. This effect has the emotion, fear, mental, and visual traits.</li>\n</ul>"
        },
        "featType": {
            "value": "archetype"
        },
        "level": {
            "value": 8
        },
        "prerequisites": {
            "value": [
                {
                    "value": "Play to the Crowd"
                }
            ]
        },
        "rules": [],
        "source": {
            "value": "Pathfinder Advanced Player's Guide"
        },
        "traits": {
            "custom": "",
            "rarity": {
                "value": "common"
            },
            "value": [
                "archetype"
            ]
        }
    },
    "effects": [],
    "flags": {},
    "img": "systems/pf2e/icons/features/feats/feats.webp",
    "name": "Call Your Shot",
    "type": "feat"
}
