{
    "_id": "bS6DSyl5xysZ5qPS",
    "data": {
        "actionCategory": {
            "value": ""
        },
        "actionType": {
            "value": "passive"
        },
        "actions": {
            "value": null
        },
        "description": {
            "value": "<p>You gain your mystery's initial revelation spell (<em>@Compendium[pf2e.spells-srd.Incendiary Aura]{Incendiary Aura}</em>). Casting this spell progresses your @Compendium[pf2e.classfeatures.Oracular Curse]{Oracular Curse}. Use the minor curse from your mystery, but when you progress it again, instead of your mystery's moderate curse effect, you become @Compendium[pf2e.conditionitems.Flat-Footed]{Flat-Footed} in addition to the effects of the minor curse.</p>\n<p>If you don't have one, you gain a focus pool of 1 Focus Point. You can @Compendium[pf2e.actionspf2e.Refocus]{Refocus} by reconciling the conflicting nature of your mystery, which also reduces your curse to minor.</p>\n<h4>Minor Curse of Flames</h4>\n<p>The smoke, heat, and crackling flames of your curse fill your vision and all your other senses.</p>\n<p>Creatures further than 30 feet are @Compendium[pf2e.conditionitems.Concealed]{Concealed} from you. You can't benefit from effects that would allow you to ignore or mitigate this concealment, as normal for effects of an oracular curse.</p>\n<p>@Compendium[pf2e.feature-effects.Effect: Minor Flames Curse]{Effect: Minor Flames Curse}</p>"
        },
        "featType": {
            "value": "archetype"
        },
        "level": {
            "value": 4
        },
        "location": "",
        "prerequisites": {
            "value": [
                {
                    "value": "Oracle Dedication"
                }
            ]
        },
        "rules": [
            {
                "key": "ActiveEffectLike",
                "mode": "add",
                "path": "data.resources.focus.max",
                "value": 1
            }
        ],
        "source": {
            "value": ""
        },
        "traits": {
            "custom": "",
            "rarity": {
                "value": "common"
            },
            "value": [
                "archetype"
            ]
        }
    },
    "effects": [],
    "flags": {},
    "img": "systems/pf2e/icons/features/feats/feats.webp",
    "name": "First Revelation (Flames Mystery)",
    "type": "feat"
}
