{
    "_id": "sG9fPQk4w9y6MmnY",
    "data": {
        "actionCategory": {
            "value": ""
        },
        "actionType": {
            "value": "passive"
        },
        "actions": {
            "value": null
        },
        "description": {
            "value": "<p>You are a master archivist and entertainer, capable of pulling wisdom from the tales you tell and weaving your allies and enemies into a powerful narrative. You gain the @Compendium[pf2e.actionspf2e.Spin Tale]{Spin Tale} action.</p>\n<hr />\n<p><strong>Special</strong> You can't select another dedication feat until you've gained two other feats from the folklorist archetype.</p>"
        },
        "featType": {
            "value": "archetype"
        },
        "level": {
            "value": 2
        },
        "location": "",
        "prerequisites": {
            "value": [
                {
                    "value": "trained in Performance"
                }
            ]
        },
        "rules": [],
        "source": {
            "value": "Pathfinder #170: Spoken on the Song Wind"
        },
        "traits": {
            "custom": "",
            "rarity": {
                "value": "uncommon"
            },
            "value": [
                "archetype",
                "dedication"
            ]
        }
    },
    "effects": [],
    "flags": {},
    "img": "systems/pf2e/icons/default-icons/feat.svg",
    "name": "Folklorist Dedication",
    "type": "feat"
}
