{
    "_id": "WsEVkMFe8ZEIRKLu",
    "data": {
        "actionCategory": {
            "value": ""
        },
        "actionType": {
            "value": "passive"
        },
        "actions": {
            "value": null
        },
        "description": {
            "value": "<p>Your eidolon grabs enemies. Choose one of the eidolon's unarmed attacks with the grapple trait. It gains the @Compendium[pf2e.bestiary-ability-glossary-srd.Grab]{Grab} action on that unarmed attack.</p>"
        },
        "featType": {
            "value": "class"
        },
        "level": {
            "value": 12
        },
        "location": "",
        "prerequisites": {
            "value": []
        },
        "rules": [],
        "source": {
            "value": ""
        },
        "traits": {
            "custom": "",
            "rarity": {
                "value": "common"
            },
            "value": [
                "evolution",
                "summoner"
            ]
        }
    },
    "effects": [],
    "flags": {},
    "img": "systems/pf2e/icons/default-icons/feat.svg",
    "name": "Grasping Limbs",
    "type": "feat"
}
