{
    "_id": "iFEecf9o6uhJxWcG",
    "data": {
        "actionCategory": {
            "value": ""
        },
        "actionType": {
            "value": "passive"
        },
        "actions": {
            "value": null
        },
        "description": {
            "value": "<p>You gain the lesser order benefit of a Hellknight order other than the one to which you belong. This represents your time spent training with members of that order to learn their techniques and teachings. If you aren't in good standing with a given order, you can't receive their training.</p>\n<hr />\n<p><strong>Special</strong> You can select this feat multiple times, gaining the lesser order benefit from a different order each time by training with members of that order.</p>"
        },
        "featType": {
            "value": "class"
        },
        "level": {
            "value": 12
        },
        "location": "",
        "prerequisites": {
            "value": [
                {
                    "value": "Hellknight Armiger Dedication"
                },
                {
                    "value": "Hellknight Dedication or Hellknight Signifer Dedication"
                }
            ]
        },
        "rules": [],
        "source": {
            "value": "Pathfinder Lost Omens: Character Guide"
        },
        "traits": {
            "custom": "",
            "rarity": {
                "value": "uncommon"
            },
            "value": [
                "archetype"
            ]
        }
    },
    "effects": [],
    "flags": {},
    "img": "systems/pf2e/icons/features/feats/feats.webp",
    "name": "Hellknight Order Cross-Training",
    "type": "feat"
}
