{
    "_id": "KYTSvAEqK7KAyVwi",
    "data": {
        "actionCategory": {
            "value": "defensive"
        },
        "actionType": {
            "value": "reaction"
        },
        "actions": {
            "value": null
        },
        "description": {
            "value": "<p><strong>Frequency</strong> once per hour</p>\n<p><strong>Trigger</strong> A creature with the animal, beast, elemental, fey, fungus, or plant trait attacks you, and you can see the attacker.</p>\n<hr />\n<p>Your canny understanding of natural and primal creatures helps you predict and dodge their attacks. The triggering attack roll targets your Nature DC instead of your AC. Though this allows you to avoid taking penalties to your AC, it doesn't remove any conditions or other effects causing such penalties. For example, an enemy with sneak attack would still deal extra damage to you for being flat-footed, even though you wouldn't take the -2 circumstance penalty against the attack.</p>"
        },
        "featType": {
            "value": "ancestry"
        },
        "level": {
            "value": 1
        },
        "location": "",
        "prerequisites": {
            "value": [
                {
                    "value": "trained in Nature"
                }
            ]
        },
        "rules": [],
        "source": {
            "value": "Pathfinder Lost Omens: The Mwangi Expanse"
        },
        "traits": {
            "custom": "",
            "rarity": {
                "value": "common"
            },
            "value": [
                "grippli"
            ]
        }
    },
    "effects": [],
    "flags": {},
    "img": "systems/pf2e/icons/default-icons/feats.webp",
    "name": "Hunter's Defense",
    "type": "feat"
}
