{
    "_id": "7RFu7EwwvjHMP0dq",
    "data": {
        "actionCategory": {
            "value": ""
        },
        "actionType": {
            "value": "passive"
        },
        "actions": {
            "value": null
        },
        "description": {
            "value": "<p>You remember the secrets of your rakshasa forebears and know how to apply those memories to get results. You can cast <em>@Compendium[pf2e.spells-srd.Humanoid Form]{Humanoid Form}</em> and <em>@Compendium[pf2e.spells-srd.Illusory Creature]{Illusory Creature}</em> once per day each as 2nd-level divine innate spells.</p>"
        },
        "featType": {
            "value": "ancestry"
        },
        "level": {
            "value": 9
        },
        "location": "",
        "prerequisites": {
            "value": [
                {
                    "value": "Beastbrood"
                }
            ]
        },
        "rules": [],
        "source": {
            "value": "Pathfinder Lost Omens: Ancestry Guide"
        },
        "traits": {
            "custom": "",
            "rarity": {
                "value": "common"
            },
            "value": [
                "tiefling"
            ]
        }
    },
    "effects": [],
    "flags": {},
    "img": "systems/pf2e/icons/features/feats/feats.webp",
    "name": "Rakshasa Magic",
    "type": "feat"
}
