{
    "_id": "1LFbIRhb3Fgk4203",
    "data": {
        "actionCategory": {
            "value": ""
        },
        "actionType": {
            "value": "passive"
        },
        "actions": {
            "value": null
        },
        "description": {
            "value": "<p>You've reinforced your interior parts with sealant or other flame-retardant materials, protecting you from fire. You no longer have the weakness to fire from the flammable ability.</p>\n<p><strong>Special</strong> You can't take this feat if you're a stuffed poppet.</p>"
        },
        "featType": {
            "value": "ancestry"
        },
        "level": {
            "value": 5
        },
        "location": "",
        "prerequisites": {
            "value": []
        },
        "rules": [],
        "source": {
            "value": ""
        },
        "traits": {
            "custom": "",
            "rarity": {
                "value": "common"
            },
            "value": [
                "poppet"
            ]
        }
    },
    "effects": [],
    "flags": {},
    "img": "systems/pf2e/icons/default-icons/feats.webp",
    "name": "Sealed Poppet",
    "type": "feat"
}
