{
    "_id": "KYKK1vLqGIxXH5Tu",
    "data": {
        "actionCategory": {
            "value": ""
        },
        "actionType": {
            "value": "passive"
        },
        "actions": {
            "value": null
        },
        "description": {
            "value": "<p>You have a connection with creatures that share your physiology. You can ask questions of, receive answers from, and use the Diplomacy skill with plants or fungi that match your leshy heritage. Generally, fungus leshies can speak to mushrooms and fungi; gourd leshies can speak to gourds, melons, and similar fruiting plants; leaf leshies can speak with deciduous trees; and vine leshies can speak with vines and climbing plants. The GM determines which plants or fungi count for this ability.</p>"
        },
        "featType": {
            "value": "ancestry"
        },
        "level": {
            "value": 5
        },
        "prerequisites": {
            "value": []
        },
        "rules": [],
        "source": {
            "value": "Pathfinder Lost Omens: Character Guide"
        },
        "traits": {
            "custom": "",
            "rarity": {
                "value": "common"
            },
            "value": [
                "leshy"
            ]
        }
    },
    "effects": [],
    "flags": {},
    "img": "systems/pf2e/icons/features/feats/feats.webp",
    "name": "Speak with Kindred",
    "type": "feat"
}
