{
    "_id": "1VuHjj32wge2gPOr",
    "data": {
        "description": {
            "value": "<p>Granted by <em>@Compendium[pf2e.spells-srd.Animal Feature]{Animal Feature}</em>.</p>\n<p>You gain a Fly Speed equal to your land Speed.</p>"
        },
        "duration": {
            "expiry": "turn-start",
            "sustained": false,
            "unit": "minutes",
            "value": 1
        },
        "level": {
            "value": 4
        },
        "rules": [
            {
                "key": "BaseSpeed",
                "selector": "fly",
                "value": "@attributes.speed.value"
            }
        ],
        "source": {
            "value": ""
        },
        "start": {
            "initiative": null,
            "value": 0
        },
        "target": null,
        "tokenIcon": {
            "show": true
        },
        "traits": {
            "custom": "",
            "rarity": {
                "value": "common"
            },
            "value": []
        }
    },
    "effects": [],
    "flags": {},
    "img": "systems/pf2e/icons/spells/animal-feature.webp",
    "name": "Spell Effect: Animal Feature (Wings)",
    "type": "effect"
}
