{
    "_id": "gOjrie9YndQPomU8",
    "data": {
        "abilities": {
            "cha": {
                "mod": 1
            },
            "con": {
                "mod": 4
            },
            "dex": {
                "mod": 2
            },
            "int": {
                "mod": 0
            },
            "str": {
                "mod": 5
            },
            "wis": {
                "mod": 2
            }
        },
        "attributes": {
            "ac": {
                "details": "",
                "value": 24
            },
            "allSaves": {
                "value": ""
            },
            "hp": {
                "details": "",
                "max": 94,
                "temp": 0,
                "value": 94
            },
            "initiative": {
                "ability": "perception"
            },
            "perception": {
                "value": 14
            },
            "shield": {
                "ac": 0,
                "brokenThreshold": 0,
                "hardness": 0,
                "max": 0,
                "value": 0
            },
            "speed": {
                "otherSpeeds": [
                    {
                        "exceptions": "",
                        "label": "Burrow",
                        "type": "burrow",
                        "value": "50"
                    }
                ],
                "value": "25"
            }
        },
        "details": {
            "alignment": {
                "value": "N"
            },
            "blurb": "",
            "creatureType": "Elemental",
            "level": {
                "value": 6
            },
            "privateNotes": "",
            "publicNotes": "<p>Shifting back and forth between a detailed likeness of a human and a muted and featureless bipedal form, this creature of pure sand moves with an eerie grace. The sand sentry is often called upon by spellcasters to stand guard over an area of great importance-these elementals are patient participants in such roles, making them well suited for long-term service.</p>",
            "source": {
                "value": "Pathfinder Bestiary 2"
            }
        },
        "resources": {},
        "saves": {
            "fortitude": {
                "saveDetail": "",
                "value": 16
            },
            "reflex": {
                "saveDetail": "",
                "value": 12
            },
            "will": {
                "saveDetail": "",
                "value": 14
            }
        },
        "traits": {
            "attitude": {
                "value": "hostile"
            },
            "ci": [],
            "di": {
                "custom": "",
                "value": [
                    "bleed",
                    "paralyzed",
                    "poison",
                    "sleep"
                ]
            },
            "dr": [],
            "dv": [],
            "languages": {
                "custom": "",
                "selected": [],
                "value": [
                    "terran"
                ]
            },
            "rarity": {
                "value": "common"
            },
            "senses": {
                "value": "darkvision, tremorsense (imprecise) 60 feet"
            },
            "size": {
                "value": "med"
            },
            "traits": {
                "custom": "",
                "value": [
                    "earth",
                    "elemental"
                ]
            }
        }
    },
    "effects": [],
    "flags": {},
    "img": "systems/pf2e/icons/default-icons/npc.svg",
    "items": [
        {
            "_id": "tByLKFHCnMANfCJV",
            "data": {
                "attack": {
                    "value": ""
                },
                "attackEffects": {
                    "custom": "",
                    "value": [
                        "blinding-sand"
                    ]
                },
                "bonus": {
                    "value": 17
                },
                "damageRolls": {
                    "0": {
                        "damage": "2d8+8",
                        "damageType": "bludgeoning"
                    }
                },
                "description": {
                    "value": ""
                },
                "rules": [],
                "slug": null,
                "source": {
                    "value": ""
                },
                "traits": {
                    "custom": "",
                    "rarity": {
                        "value": "common"
                    },
                    "value": []
                },
                "weaponType": {
                    "value": "melee"
                }
            },
            "effects": [],
            "flags": {},
            "img": "systems/pf2e/icons/default-icons/melee.svg",
            "name": "Fist",
            "sort": 100000,
            "type": "melee"
        },
        {
            "_id": "bIfz2rvBHXjIjmyK",
            "data": {
                "actionCategory": {
                    "value": "interaction"
                },
                "actionType": {
                    "value": "passive"
                },
                "actions": {
                    "value": null
                },
                "description": {
                    "value": "<p>@Localize[PF2E.NPC.Abilities.Glossary.Darkvision]</p>"
                },
                "requirements": {
                    "value": ""
                },
                "rules": [],
                "slug": "darkvision",
                "source": {
                    "value": ""
                },
                "traits": {
                    "custom": "",
                    "rarity": {
                        "value": "common"
                    },
                    "value": []
                },
                "trigger": {
                    "value": ""
                },
                "weapon": {
                    "value": ""
                }
            },
            "effects": [],
            "flags": {
                "core": {
                    "sourceId": "Compendium.pf2e.bestiary-ability-glossary-srd.qCCLZhnp2HhP3Ex6"
                }
            },
            "img": "systems/pf2e/icons/default-icons/action.svg",
            "name": "Darkvision",
            "sort": 200000,
            "type": "action"
        },
        {
            "_id": "2MrVVGinZvjfZN22",
            "data": {
                "actionCategory": {
                    "value": "interaction"
                },
                "actionType": {
                    "value": "passive"
                },
                "actions": {
                    "value": null
                },
                "description": {
                    "value": "<p>@Localize[PF2E.NPC.Abilities.Glossary.Tremorsense]</p>"
                },
                "requirements": {
                    "value": ""
                },
                "rules": [],
                "slug": "tremorsense",
                "source": {
                    "value": ""
                },
                "traits": {
                    "custom": "",
                    "rarity": {
                        "value": "common"
                    },
                    "value": []
                },
                "trigger": {
                    "value": ""
                },
                "weapon": {
                    "value": ""
                }
            },
            "effects": [],
            "flags": {
                "core": {
                    "sourceId": "Compendium.pf2e.bestiary-ability-glossary-srd.j2wsK6IsW5yMW1jW"
                }
            },
            "img": "systems/pf2e/icons/default-icons/action.svg",
            "name": "Tremorsense",
            "sort": 300000,
            "type": "action"
        },
        {
            "_id": "O5P2324cJfYLLpmm",
            "data": {
                "actionCategory": {
                    "value": "defensive"
                },
                "actionType": {
                    "value": "passive"
                },
                "actions": {
                    "value": null
                },
                "description": {
                    "value": "<p>When the sand sentry takes fire or lightning damage, its outer layer of sand fuses into sheets of hardened glass for 1 minute. This increases the sand sentry's AC to 26 and grants it resistance 5 to acid, cold, electricity, fire, force, piercing, and slashing damage. A sand sentry can't use earth glide while glass armor is active.</p>"
                },
                "requirements": {
                    "value": ""
                },
                "rules": [
                    {
                        "key": "ToggleProperty",
                        "property": "flags.pf2e.rollOptions.ac.glass-armor"
                    },
                    {
                        "key": "FlatModifier",
                        "predicate": {
                            "all": [
                                "glass-armor"
                            ]
                        },
                        "selector": "ac",
                        "value": 2
                    }
                ],
                "slug": null,
                "source": {
                    "value": ""
                },
                "traits": {
                    "custom": "",
                    "rarity": {
                        "value": "common"
                    },
                    "value": []
                },
                "trigger": {
                    "value": ""
                },
                "weapon": {
                    "value": ""
                }
            },
            "effects": [],
            "flags": {},
            "img": "systems/pf2e/icons/default-icons/mystery-man.svg",
            "name": "Glass Armor",
            "sort": 400000,
            "type": "action"
        },
        {
            "_id": "6NgDd3kvRPxleBuE",
            "data": {
                "actionCategory": {
                    "value": "offensive"
                },
                "actionType": {
                    "value": "passive"
                },
                "actions": {
                    "value": null
                },
                "description": {
                    "value": "<p>When the sand sentry critically hits with a fist Strike, the target is @Compendium[pf2e.conditionitems.Blinded]{Blinded} for 1 round.</p>"
                },
                "requirements": {
                    "value": ""
                },
                "rules": [],
                "slug": null,
                "source": {
                    "value": ""
                },
                "traits": {
                    "custom": "",
                    "rarity": {
                        "value": "common"
                    },
                    "value": []
                },
                "trigger": {
                    "value": ""
                },
                "weapon": {
                    "value": ""
                }
            },
            "effects": [],
            "flags": {},
            "img": "systems/pf2e/icons/actions/Passive.webp",
            "name": "Blinding Sand",
            "sort": 500000,
            "type": "action"
        },
        {
            "_id": "XHjNDrJBXaCEsi2i",
            "data": {
                "actionCategory": {
                    "value": "offensive"
                },
                "actionType": {
                    "value": "passive"
                },
                "actions": {
                    "value": null
                },
                "description": {
                    "value": "<p>A sand sentry can @Compendium[pf2e.actionspf2e.Burrow]{Burrow} through earthen matter, including rock. When it does so, it moves at its full burrow Speed, leaving no tunnels or signs of its passing.</p>"
                },
                "requirements": {
                    "value": ""
                },
                "rules": [],
                "slug": null,
                "source": {
                    "value": ""
                },
                "traits": {
                    "custom": "",
                    "rarity": {
                        "value": "common"
                    },
                    "value": []
                },
                "trigger": {
                    "value": ""
                },
                "weapon": {
                    "value": ""
                }
            },
            "effects": [],
            "flags": {},
            "img": "systems/pf2e/icons/actions/Passive.webp",
            "name": "Earth Glide",
            "sort": 600000,
            "type": "action"
        },
        {
            "_id": "k1W45MkufYejTTye",
            "data": {
                "description": {
                    "value": ""
                },
                "item": {
                    "value": 0
                },
                "mod": {
                    "value": 14
                },
                "proficient": {
                    "value": 0
                },
                "rules": [],
                "slug": null,
                "source": {
                    "value": ""
                },
                "traits": {
                    "custom": "",
                    "rarity": {
                        "value": "common"
                    },
                    "value": []
                }
            },
            "effects": [],
            "flags": {},
            "img": "systems/pf2e/icons/default-icons/lore.svg",
            "name": "Acrobatics",
            "sort": 700000,
            "type": "lore"
        },
        {
            "_id": "3IKSOIIWyaxP7Xbh",
            "data": {
                "description": {
                    "value": ""
                },
                "item": {
                    "value": 0
                },
                "mod": {
                    "value": 14
                },
                "proficient": {
                    "value": 0
                },
                "rules": [
                    {
                        "key": "FlatModifier",
                        "label": "In Sand",
                        "predicate": {
                            "all": [
                                "terrain:sand"
                            ]
                        },
                        "selector": "stealth",
                        "value": 3
                    }
                ],
                "slug": null,
                "source": {
                    "value": ""
                },
                "traits": {
                    "custom": "",
                    "rarity": {
                        "value": "common"
                    },
                    "value": []
                },
                "variants": {
                    "0": {
                        "label": "+17 in sand",
                        "options": "terrain:sand"
                    }
                }
            },
            "effects": [],
            "flags": {},
            "img": "systems/pf2e/icons/default-icons/lore.svg",
            "name": "Stealth",
            "sort": 800000,
            "type": "lore"
        }
    ],
    "name": "Sand Sentry",
    "token": {
        "disposition": -1,
        "height": 1,
        "img": "systems/pf2e/icons/default-icons/npc.svg",
        "name": "Sand Sentry",
        "width": 1
    },
    "type": "npc"
}
