{
    "_id": "EqdSKqr8Qj5TUhMR",
    "data": {
        "ability": {
            "value": ""
        },
        "area": {
            "areaType": "",
            "value": ""
        },
        "autoHeightenLevel": {
            "value": null
        },
        "category": {
            "value": "spell"
        },
        "components": {
            "focus": false,
            "material": false,
            "somatic": true,
            "verbal": true
        },
        "cost": {
            "value": ""
        },
        "damage": {
            "value": {}
        },
        "description": {
            "value": "<p><strong>Area</strong> 1 cubic foot</p>\n<hr />\n<p>Your magic quickly flows over an area to help you count and catalog. Name a particular type of object you are looking for within the area. You gain an instant estimate of the quantity of the chosen objects that are clearly visible within the target area. The number is rounded to the largest digit. For example, you could look at a pile of 180 copper coins, and you would learn that it held about 200 coins, but you couldn't determine there were exactly 180 coins.</p>\n<p>The type of object you name can be as specific or general as you like-\"dented copper coins\" is as viable as \"coins\"-but the distinguishing features must be obvious at a glance, and the spell is automatically fooled by objects disguised as other objects. For instance, the spell would register copper coins plated in gold as gold coins, not copper coins</p>"
        },
        "duration": {
            "value": ""
        },
        "hasCounteractCheck": {
            "value": false
        },
        "level": {
            "value": 1
        },
        "location": {
            "value": ""
        },
        "materials": {
            "value": ""
        },
        "prepared": {
            "value": ""
        },
        "range": {
            "value": "10 feet"
        },
        "rules": [],
        "save": {
            "basic": "",
            "value": ""
        },
        "school": {
            "value": "divination"
        },
        "source": {
            "value": "Pathfinder Secrets of Magic"
        },
        "spellType": {
            "value": "utility"
        },
        "sustained": {
            "value": false
        },
        "target": {
            "value": ""
        },
        "time": {
            "value": "2"
        },
        "traditions": {
            "custom": "",
            "value": [
                "arcane",
                "divine",
                "occult",
                "primal"
            ]
        },
        "traits": {
            "custom": "",
            "rarity": {
                "value": "common"
            },
            "value": [
                "cantrip",
                "detection"
            ]
        }
    },
    "effects": [],
    "flags": {},
    "img": "systems/pf2e/icons/spells/approximate.webp",
    "name": "Approximate",
    "type": "spell"
}
