{
    "_id": "8AMvNVOUEtxBCDvJ",
    "data": {
        "ability": {
            "value": ""
        },
        "area": {
            "areaType": "",
            "value": null
        },
        "areasize": {
            "value": ""
        },
        "category": {
            "value": "spell"
        },
        "components": {
            "material": false,
            "somatic": true,
            "verbal": true
        },
        "cost": {
            "value": ""
        },
        "damage": {
            "value": {}
        },
        "description": {
            "value": "<p>You transform into the shape of a legendary monster, assuming a Huge battle form. You must have enough space to expand into or the spell is lost. When you cast this spell, choose phoenix, purple worm, or sea serpent. While in this form, you gain the beast trait (for phoenix) or the animal trait (for purple worm or sea serpent). You can Dismiss the spell.</p>\n<p>You gain the following statistics and abilities regardless of which battle form you choose:</p>\n<ul>\n<li>AC = 20 + your level. Ignore your armor's check penalty and Speed reduction.</li>\n<li>20 temporary Hit Points.</li>\n<li>Darkvision.</li>\n<li>One or more unarmed melee attacks specific to the battle form you choose, which are the only attacks you can use. You're trained with them. Your attack modifier is +28, and you use the listed damage. These attacks are Strength based (for the purpose of the @Compendium[pf2e.conditionitems.Enfeebled]{Enfeebled} condition, for example). If your unarmed attack modifier is higher, you can use it instead.</li>\n<li>Athletics modifier of +30, unless your own modifier is higher.</li>\n</ul>\n<p>You also gain specific abilities based on the type of monster you choose:</p>\n<ul>\n<li><strong>@Compendium[pf2e.spell-effects.Spell Effect: Monstrosity Form (Phoenix)]{Phoenix}</strong>\n<ul>\n<li>Speed 30 feet, fly Speed 90 feet;</li>\n<li><strong>Melee</strong> <span class=\"pf2-icon\">1</span> beak (reach 15 feet), <strong>Damage</strong> 2d6+12 piercing plus 2d4 fire and [[/r 2d4 #persistent fire]] @Compendium[pf2e.conditionitems.Persistent Damage]{Persistent Fire Damage};</li>\n<li><strong>Melee</strong> <span class=\"pf2-icon\">1</span> talon (agile, reach 15 feet), <strong>Damage</strong> 2d8+12 slashing;</li>\n<li><strong>Shroud of Flame</strong> (aura, evocation, fire, primal) 20 feet. You gain an aura of fire that extends out from you. A creature that enters or ends its turn within the aura takes 2d6 fire damage. A creature can take this damage only once per turn. You can use a single action, which has the concentrate trait, to activate or deactivate this aura.</li>\n</ul>\n</li>\n<li><strong>@Compendium[pf2e.spell-effects.Spell Effect: Monstrosity Form (Purple Worm)]{Purple Worm}</strong>\n<ul>\n<li>Speed 40 feet, burrow Speed 30 feet, swim Speed 20 feet;</li>\n<li><strong>Melee</strong> <span class=\"pf2-icon\">1</span> jaws (reach 10 feet), <strong>Damage</strong> 2d12+20 piercing;</li>\n<li><strong>Melee</strong> <span class=\"pf2-icon\">1</span> stinger (agile, reach 10 feet), <strong>Damage</strong> 2d8+15 piercing plus [[/r 2d6 #persistent poison]] @Compendium[pf2e.conditionitems.Persistent Damage]{Persistent Poison Damage};</li>\n<li><strong>Melee</strong> <span class=\"pf2-icon\">1</span> body (reach 10 feet) <strong>Damage</strong> 2d8+20 bludgeoning;</li>\n<li><strong>Inexorable</strong> You automatically recover from the @Compendium[pf2e.conditionitems.Paralyzed]{Paralyzed}, @Compendium[pf2e.conditionitems.Slowed]{Slowed}, and @Compendium[pf2e.conditionitems.Stunned]{Stunned} conditions at the end of each of your turns. You're also immune to being @Compendium[pf2e.conditionitems.Immobilized]{Immobilized} and ignore difficult terrain and greater difficult terrain.</li>\n</ul>\n</li>\n<li><strong>@Compendium[pf2e.spell-effects.Spell Effect: Monstrosity Form (Sea Serpent)]{Sea Serpent}</strong>\n<ul>\n<li>Speed 20 feet, swim Speed 90 feet;</li>\n<li><strong>Melee</strong> <span class=\"pf2-icon\">1</span> jaws (reach 15 feet), <strong>Damage</strong> 2d12+20 piercing;</li>\n<li><strong>Melee</strong> <span class=\"pf2-icon\">1</span> tail (reach 25 feet), <strong>Damage</strong> 2d8+20 bludgeoning;</li>\n<li><strong>Spine Rake</strong> <span class=\"pf2-icon\">2 </span>(move) You extend your spines and Swim or Stride. Each creature you're adjacent to at any point during your movement takes 4d8+10 slashing damage (basic Reflex against your spell DC).</li>\n</ul>\n</li>\n</ul>\n<hr />\n<p><strong>Heightened (9th)</strong> You instead gain AC = 22 + your level, 25 temporary HP, attack modifier +31, increase damage by one damage die, and Athletics +33.</p>"
        },
        "duration": {
            "value": "1 minute"
        },
        "hasCounteractCheck": {
            "value": false
        },
        "level": {
            "value": 8
        },
        "location": {
            "value": ""
        },
        "materials": {
            "value": ""
        },
        "prepared": {
            "value": ""
        },
        "primarycheck": {
            "value": ""
        },
        "range": {
            "value": ""
        },
        "rules": [],
        "save": {
            "basic": "",
            "value": ""
        },
        "school": {
            "value": "transmutation"
        },
        "secondarycasters": {
            "value": ""
        },
        "secondarycheck": {
            "value": ""
        },
        "source": {
            "value": "Pathfinder Core Rulebook"
        },
        "spellType": {
            "value": "utility"
        },
        "sustained": {
            "value": false
        },
        "target": {
            "value": ""
        },
        "time": {
            "value": "2"
        },
        "traditions": {
            "value": [
                "arcane",
                "primal"
            ]
        },
        "traits": {
            "custom": "",
            "rarity": {
                "value": "common"
            },
            "value": [
                "polymorph"
            ]
        }
    },
    "effects": [],
    "flags": {},
    "img": "systems/pf2e/icons/spells/monstrosity-form.webp",
    "name": "Monstrosity Form",
    "type": "spell"
}
