{
    "_id": "czO0wbT1i320gcu9",
    "data": {
        "ability": {
            "value": ""
        },
        "area": {
            "areaType": "",
            "value": ""
        },
        "autoHeightenLevel": {
            "value": null
        },
        "category": {
            "value": "spell"
        },
        "components": {
            "focus": false,
            "material": false,
            "somatic": true,
            "verbal": true
        },
        "cost": {
            "value": ""
        },
        "damage": {
            "value": {}
        },
        "description": {
            "value": "<p>Your flamboyant flourish invokes such powerful feelings in your audience that you incite cheers and applause. Targets of this spell must be able to see, hear, or otherwise understand you. The targets must attempt a Will save.</p>\n<hr />\n<p><strong>Critical Success</strong> The target is unaffected.</p>\n<p><strong>Success</strong> The target becomes mildly distracted by your display and applauds while it isn't fully occupied. It can't use reactions.</p>\n<p><strong>Failure</strong> The target applauds you so vigorously that it can't use reactions and is @Compendium[pf2e.conditionitems.Slowed]{Slowed 1}. The applause is so involved that it has the manipulate trait. This triggers reactions based on the manipulate trait at the start of the target's turn.</p>\n<p><strong>Critical Failure</strong> As failure, plus the target is so distracted by its vigorous applauding of you that it's @Compendium[pf2e.conditionitems.Fascinated]{Fascinated} with you.</p>\n<hr />\n<p><strong>Heightened (6th)</strong> You can target up to 10 creatures.</p>"
        },
        "duration": {
            "value": ""
        },
        "hasCounteractCheck": {
            "value": false
        },
        "level": {
            "value": 3
        },
        "location": {
            "value": ""
        },
        "materials": {
            "value": ""
        },
        "range": {
            "value": "60 feet"
        },
        "rules": [],
        "save": {
            "basic": "",
            "value": "will"
        },
        "school": {
            "value": "enchantment"
        },
        "source": {
            "value": "Pathfinder Secrets of Magic"
        },
        "spellType": {
            "value": "save"
        },
        "sustained": {
            "value": false
        },
        "target": {
            "value": "1 creature"
        },
        "time": {
            "value": "2"
        },
        "traditions": {
            "custom": "",
            "value": [
                "arcane",
                "divine",
                "occult"
            ]
        },
        "traits": {
            "custom": "",
            "rarity": {
                "value": "common"
            },
            "value": [
                "emotion",
                "mental"
            ]
        }
    },
    "effects": [],
    "flags": {},
    "img": "systems/pf2e/icons/spells/roaring-applause.webp",
    "name": "Roaring Applause",
    "type": "spell"
}
