{
    "_id": "35k2aujXYvqUCSS1",
    "data": {
        "actionCategory": {
            "value": ""
        },
        "actionType": {
            "value": "passive"
        },
        "actions": {
            "value": null
        },
        "description": {
            "value": "<p>You hatched into a warren among narrow tunnels and countless kin. Your body is flexible.</p>\n<p>When @Compendium[pf2e.actionspf2e.Climb]{Climbing} rock walls, stalactites, and other natural stone features, you move at half your Speed on a success and at full Speed on a critical success (and you move at full Speed on a success if you have @Compendium[pf2e.feats-srd.Quick Climb]{Quick Climb}). This doesn't affect you if you're using a climb Speed.</p>\n<p>If you roll a success on an Acrobatics check to @Compendium[pf2e.actionspf2e.Squeeze]{Squeeze}, you get a critical success instead.</p>"
        },
        "featType": {
            "value": "heritage"
        },
        "level": {
            "value": 1
        },
        "location": "",
        "prerequisites": {
            "value": []
        },
        "rules": [
            {
                "key": "Note",
                "predicate": {
                    "all": [
                        "action:climb",
                        "natural-stone"
                    ]
                },
                "selector": "athletics",
                "text": "<p class='compact-text'><strong>{item|name}</strong> When you climb natural stone, you move at half your Speed on a success, and full speed on a critical success.</p>"
            },
            {
                "key": "Note",
                "predicate": {
                    "all": [
                        "action:squeeze"
                    ]
                },
                "selector": "acrobatics",
                "text": "<p class='compact-text'><strong>{item|name}</strong> When you roll a success to Squeeze, you get a critical success instead.</p>"
            }
        ],
        "source": {
            "value": ""
        },
        "traits": {
            "custom": "",
            "rarity": {
                "value": "common"
            },
            "value": [
                "kobold"
            ]
        }
    },
    "effects": [],
    "flags": {},
    "img": "systems/pf2e/icons/features/ancestry/cavern-kobold.webp",
    "name": "Cavern Kobold",
    "type": "feat"
}
