{
    "_id": "y1EmCv2cEb5hXBwx",
    "data": {
        "actionCategory": {
            "value": ""
        },
        "actionType": {
            "value": "passive"
        },
        "actions": {
            "value": null
        },
        "description": {
            "value": "<p>Your eyes are sharp, allowing you to make out small details about concealed or even invisible creatures that others might miss. You gain a +2 circumstance bonus when using the @Compendium[pf2e.actionspf2e.Seek]{Seek} action to find @Compendium[pf2e.conditionitems.Hidden]{Hidden} or @Compendium[pf2e.conditionitems.Undetected]{Undetected} creatures within 30 feet of you. When you target an opponent that is @Compendium[pf2e.conditionitems.Concealed]{Concealed} from you or hidden from you, reduce the DC of the flat check to 3 for a concealed target or 9 for a hidden one.</p>"
        },
        "featType": {
            "value": "ancestryfeature"
        },
        "level": {
            "value": 0
        },
        "location": "",
        "prerequisites": {
            "value": []
        },
        "rules": [
            {
                "key": "FlatModifier",
                "label": "Keen Eyes (Seek hidden or undetected within 30 feet)",
                "predicate": {
                    "all": [
                        "action:seek",
                        "target:within-30-feet"
                    ],
                    "any": [
                        "target:hidden",
                        "target:undetected"
                    ]
                },
                "selector": "perception",
                "type": "circumstance",
                "value": 2
            }
        ],
        "source": {
            "value": ""
        },
        "traits": {
            "custom": "",
            "rarity": {
                "value": "common"
            },
            "selected": {
                "halfling": "Halfling"
            },
            "value": [
                "halfling"
            ]
        }
    },
    "effects": [],
    "flags": {},
    "img": "systems/pf2e/icons/features/ancestry/keen-eyes.webp",
    "name": "Keen Eyes",
    "type": "feat"
}
