{
    "_id": "9w8TdCsGEpttXYuy",
    "data": {
        "actionCategory": {
            "value": ""
        },
        "actionType": {
            "value": "passive"
        },
        "actions": {
            "value": null
        },
        "description": {
            "value": "<p><strong>[Mentor][Social]</strong></p>\n<p><strong>Prerequisites:</strong> Tier 1 with the Verdant Wheel</p>\n<p><strong>Cost</strong>: 2 Fame</p>\n<p><strong>Effect</strong>: While working with less experienced Pathfinder allies, you help your less experienced colleagues recognize danger and withstand danger. For any PCs benefiting from a Level Bump and whose levels are lower than yours, you increase the Level Bump's modifier to Perception checks and Initiative rolls to 2.</p>\n<p><strong>Normal</strong>: A Level Bump increases a PC's Perception modifier by 1.</p>\n<p><strong>Special</strong>: A PC can only benefit from two mentor boons.</p>\n<p>@Compendium[pf2e.feat-effects.Effect: Worldly Mentor Boon (PFS)]{Effect: Worldly Mentor Boon (PFS)}</p>"
        },
        "featType": {
            "value": "pfsboon"
        },
        "level": {
            "value": 0
        },
        "location": "",
        "prerequisites": {
            "value": []
        },
        "rules": [],
        "source": {
            "value": ""
        },
        "traits": {
            "custom": "",
            "rarity": {
                "value": "common"
            },
            "selected": {},
            "value": []
        }
    },
    "effects": [],
    "flags": {},
    "img": "systems/pf2e/icons/default-icons/mystery-man.webp",
    "name": "Mentor, Worldly",
    "type": "feat"
}
