{
    "_id": "u1Z7i2RyL6Sd9OVU",
    "data": {
        "description": {
            "value": "<p>The duergar taskmaster smashes their maul into the ground and invokes Droskar's name to rally their allies to action. All allied duergars of equal or lower level that are within 20 feet of the duergar taskmaster gain a +1 status bonus to attack rolls and damage rolls until the end of the duergar taskmaster's next turn.</p>"
        },
        "duration": {
            "expiry": "turn-end",
            "sustained": false,
            "unit": "rounds",
            "value": 1
        },
        "level": {
            "value": 1
        },
        "rules": [
            {
                "key": "FlatModifier",
                "label": "Take Them Down!",
                "selector": "attack",
                "type": "status",
                "value": 1
            },
            {
                "key": "FlatModifier",
                "label": "Take Them Down!",
                "selector": "damage",
                "type": "status",
                "value": 1
            }
        ],
        "source": {
            "value": "Pathfinder Bestiary"
        },
        "start": {
            "initiative": null,
            "value": 0
        },
        "target": null,
        "tokenIcon": {
            "show": true
        },
        "traits": {
            "custom": "",
            "rarity": {
                "value": "common"
            },
            "value": []
        }
    },
    "effects": [],
    "flags": {},
    "img": "systems/pf2e/icons/default-icons/effect.svg",
    "name": "Effect: Take Them Down!",
    "type": "effect"
}
