{
    "_id": "HArljmKc2IR7rtfc",
    "data": {
        "description": {
            "value": ""
        },
        "duration": {
            "expiry": "turn-end",
            "sustained": false,
            "unit": "minutes",
            "value": 1
        },
        "level": {
            "value": 1
        },
        "rules": [
            {
                "key": "FlatModifier",
                "predicate": {
                    "not": [
                        "range"
                    ]
                },
                "selector": "damage",
                "type": "item",
                "value": 2
            },
            {
                "key": "FlatModifier",
                "predicate": {
                    "all": [
                        "fear"
                    ]
                },
                "selector": "saving-throw",
                "type": "item",
                "value": 2
            }
        ],
        "source": {
            "value": ""
        },
        "start": {
            "initiative": null,
            "value": 0
        },
        "target": null,
        "tokenIcon": {
            "show": true
        },
        "traits": {
            "custom": "",
            "rarity": {
                "value": "common"
            },
            "value": []
        }
    },
    "effects": [],
    "flags": {},
    "img": "systems/pf2e/icons/equipment/alchemical-items/drugs/alcohol.webp",
    "name": "Effect: Swig",
    "type": "effect"
}
